idSerie,grupo,grupoDescrip,titulo,fechaInicio,periodicidad,cifra,unidad
SF331451,interes,Tasas de interes,"TIIE de Fondeo a Un Día Hábil Bancario, Mediana ponderada por volumen",02/01/2006,Diaria,Tasas Promedio,Porcentajes
SP30578,inflacion,Indicadores de inflación,Índice Nacional de Precios al consumidor variación anual,01/01/1970,Mensual,Porcentajes,Sin Unidad
SF43707,reserva,Reserva Internacional,Reserva Internacional,29/12/1995,Diaria,Saldos,Millones de Dólares
SF43718,FIX,Tipo de cambio (FIX),Tipo de cambio. Pesos por dólar E.U.A. Tipo de cambio para solventar obligaciones denominadas en moneda extranjera Fecha de determinación (FIX),12/11/1991,Diaria,Tipo de Cambio,Pesos por Dólar
SP74662,inflacion,Indicadores de inflación,Inflación Subyacente (nueva definición) Anual,01/02/1983,Mensual,Porcentajes,Sin Unidad
SF61745,interes,Tasas de interes,Tasa objetivo,21/01/2008,Diaria,Porcentajes,Sin Unidad
SF43936,cetes,Rendimiento de Cetes,Valores gubernamentales. Resultados de la subasta semanal Tasa de rendimiento. Cetes a 28 días,02/09/1982,Diaria,Porcentajes,Porcentajes
SF43783,interes,Tasas de interes,TIIE a 28 días Tasa de interés en por ciento anual,23/03/1995,Diaria,Porcentajes,Sin Unidad
SP68257,UDI,Valor de UDIS,Valor de UDIS,04/04/1995,Diaria,Tipo de Cambio,Unidades de Inversión
